// Jest Snapshot v1, https://goo.gl/fbAQLP

exports[`View Issue Comment Runs the render method and checks the data of used services 1`] = `
Object {
  "cardActions": Array [],
  "header": Object {
    "subTitle": "Issue #3 · in an hour",
    "title": "Third issue",
  },
  "sections": Array [
    Object {
      "header": "<b>Comment</b>",
      "widgets": Array [
        Object {
          "keyValue": Object {
            "content": "<br/>String 1<br/>",
            "multiline": true,
            "topLabel": "John Doe in 2 months",
          },
        },
      ],
    },
  ],
}
`;
