// Jest Snapshot v1, https://goo.gl/fbAQLP

exports[`View Blank Renders card 1`] = `
Object {
  "cardActions": Array [],
  "header": Object {
    "imageUrl": "https://partner-engineering-cdn.atl-paas.net/atlassian-logo-blue.png",
    "title": " ",
  },
  "sections": Array [
    Object {
      "widgets": Array [
        Object {
          "url": "https://partner-engineering-cdn.atl-paas.net/onboarding-done.png",
        },
        Object {
          "text": "Open this add-on the next time you get an email with a Jira Cloud or Bitbucket Cloud link.",
        },
        Object {
          "text": "<b>Note:</b> Jira Cloud links typically start with <u>https://mycompany.atlassian.net</u>, Bitbucket Cloud links start with <u>https://bitbucket.org</u>.",
        },
        Object {
          "text": "Atlassian Cloud for Gmail does not currently support self-hosted Jira or Bitbucket sites.",
        },
        Object {
          "buttons": Array [
            Object {
              "textButton": Object {
                "onClick": Object {
                  "openLink": Object {
                    "url": "https://confluence.atlassian.com/cloud/atlassian-cloud-for-gmail-953138538.html",
                  },
                },
                "text": "Help",
              },
            },
          ],
        },
      ],
    },
  ],
}
`;
