// Jest Snapshot v1, https://goo.gl/fbAQLP

exports[`View Settings Renders view with authorized users 1`] = `
Object {
  "cardActions": Array [],
  "header": Object {
    "imageUrl": "https://partner-engineering-cdn.atl-paas.net/icons/settings.png",
    "title": "Settings",
  },
  "sections": Array [
    Object {
      "header": "<b>Jira Cloud</b>",
      "widgets": Array [
        Object {
          "keyValue": Object {
            "bottomLabel": "test@atlassian.com",
            "content": "Test User",
            "iconUrl": "https://avatar-cdn.atlassian.com/123",
          },
        },
        Object {
          "keyValue": Object {
            "content": "test.atlassian.net",
            "iconUrl": "https://partner-engineering-cdn.atl-paas.net/jira-logo-gray.png",
            "multiline": true,
          },
        },
        Object {
          "keyValue": Object {
            "content": "test2.atlassian.net",
            "iconUrl": "https://partner-engineering-cdn.atl-paas.net/jira-logo-gray.png",
            "multiline": true,
          },
        },
        Object {
          "buttons": Array [
            Object {
              "textButton": Object {
                "onClick": Object {
                  "openLink": Object {
                    "url": "https://jira-auth.com",
                  },
                },
                "text": "Connect Jira Site",
              },
            },
          ],
        },
        Object {
          "buttons": Array [
            Object {
              "textButton": Object {
                "onClick": Object {
                  "openLink": Object {
                    "url": "https://test.atlassian.net/people/12345/settings/apps",
                  },
                },
                "text": "Remove Access",
              },
            },
          ],
        },
      ],
    },
    Object {
      "header": "<b>Bitbucket Cloud</b>",
      "widgets": Array [
        Object {
          "keyValue": Object {
            "content": "Test User",
            "iconUrl": "https://bitbucket.org/account/ybaraniuk/avatar/32/",
          },
        },
        Object {
          "buttons": Array [
            Object {
              "textButton": Object {
                "onClick": Object {
                  "action": Object {
                    "actionMethodName": "dispatchAction",
                    "parameters": Object {
                      "actionName": "addon.Disconnect",
                      "args": "{\\"product\\":\\"Bitbucket\\"}",
                    },
                  },
                },
                "text": "Disconnect Bitbucket",
              },
            },
          ],
        },
      ],
    },
  ],
}
`;

exports[`View Settings Renders view without authorized users 1`] = `
Object {
  "cardActions": Array [],
  "header": Object {
    "imageUrl": "https://partner-engineering-cdn.atl-paas.net/icons/settings.png",
    "title": "Settings",
  },
  "sections": Array [
    Object {
      "header": "<b>Jira Cloud</b>",
      "widgets": Array [
        Object {
          "text": "Connect your Jira site to Gmail",
        },
        Object {
          "buttons": Array [
            Object {
              "textButton": Object {
                "onClick": Object {
                  "openLink": Object {
                    "url": "https://jira-auth.com",
                  },
                },
                "text": "Connect Jira Site",
              },
            },
          ],
        },
      ],
    },
    Object {
      "header": "<b>Bitbucket Cloud</b>",
      "widgets": Array [
        Object {
          "text": "Connect your Bitbucket account to Gmail",
        },
        Object {
          "buttons": Array [
            Object {
              "textButton": Object {
                "onClick": Object {
                  "openLink": Object {
                    "url": "https://bitbucket-auth.com",
                  },
                },
                "text": "Connect Bitbucket",
              },
            },
          ],
        },
      ],
    },
  ],
}
`;
